{
    "levelDesign": [
                    {
                    "level": "1",
                    "operacao": "soma",
                    "achievement": "casaPlaneta1",
                    "extras": "1"
                    },
                    {
                    "level": "2",
                    "operacao": "subtracao",
                    "achievement": "dogPlaneta1",
                    "extras": "4"
                    },
                    {
                    "level": "3",
                    "operacao": "multiplicacao",
                    "achievement": "carroPlaneta1",
                    "extras": "2"
                    },
                    {
                    "level": "4",
                    "operacao": "divisao",
                    "achievement": "geradorPlaneta1",
                    "extras": "3"
                    },
                    {
                    "level": "5",
                    "operacao": "combinado",
                    "achievement": "fabricaPlaneta1",
                    "extras": "1"
                    }
                    ]
}